%!PS-Adobe-3.0 EPSF-3.0
%%BoundingBox: 82 552 310 794
%%Title: create_input_image-fig
%%CreationDate: Fri Aug 26 11:23:14 2011
%%Creator: Tgif-4.2.2-QPL written by William Chia-Wei Cheng (bill.cheng@acm.org)
%%ProducedBy: (unknown)
%%Pages: 1
%%DocumentFonts: (atend)
%%DocumentPaperSizes: a4
%%EndComments
%%BeginProlog

/tgifdict 57 dict def
tgifdict begin

/tgifarrowtipdict 8 dict def
tgifarrowtipdict /mtrx matrix put

/TGAT % tgifarrowtip
 { tgifarrowtipdict begin
      /dy exch def
      /dx exch def
      /h exch def
      /w exch def
      /y exch def
      /x exch def
      /savematrix mtrx currentmatrix def
      x y translate
      dy dx atan rotate
      0 0 moveto
      w neg h lineto
      w neg h neg lineto
      savematrix setmatrix
   end
 } def

/tgifarcdict 8 dict def
tgifarcdict /mtrx matrix put

/TGAN % tgifarcn
 { tgifarcdict begin
      /endangle exch def
      /startangle exch def
      /yrad exch def
      /xrad exch def
      /y exch def
      /x exch def
      /savematrix mtrx currentmatrix def
      x y translate
      xrad yrad scale
      0 0 1 startangle endangle arc
      savematrix setmatrix
   end
 } def

/TGAR % tgifarc
 { tgifarcdict begin
      /endangle exch def
      /startangle exch def
      /yrad exch def
      /xrad exch def
      /y exch def
      /x exch def
      /savematrix mtrx currentmatrix def
      x y translate
      xrad yrad scale
      0 0 1 startangle endangle arcn
      savematrix setmatrix
   end
 } def

/TGMAX
 { exch dup 3 1 roll exch dup 3 1 roll gt { pop } { exch pop } ifelse
 } def
/TGMIN
 { exch dup 3 1 roll exch dup 3 1 roll lt { pop } { exch pop } ifelse
 } def
/TGSW { stringwidth pop } def
/tgifstrw 0 def

/bd { bind def } bind def

/GS { gsave } bd
/GR { grestore } bd
/NP { newpath } bd
/CP { closepath } bd
/CHP { charpath } bd
/CT { curveto } bd
/L { lineto } bd
/RL { rlineto } bd
/M { moveto } bd
/RM { rmoveto } bd
/S { stroke } bd
/F { fill } bd
/TR { translate } bd
/RO { rotate } bd
/SC { scale } bd
/MU { mul } bd
/DI { div } bd
/DU { dup } bd
/NE { neg } bd
/AD { add } bd
/SU { sub } bd
/PO { pop } bd
/EX { exch } bd
/CO { concat } bd
/CL { clip } bd
/EC { eoclip } bd
/EF { eofill } bd
/IM { image } bd
/IMM { imagemask } bd
/ARY { array } bd
/SG { setgray } bd
/RG { setrgbcolor } bd
/SD { setdash } bd
/W { setlinewidth } bd
/SM { setmiterlimit } bd
/SLC { setlinecap } bd
/SLJ { setlinejoin } bd
/SH { show } bd
/FF { findfont } bd
/MS { makefont setfont } bd
/AR { arcto 4 {pop} repeat } bd
/CURP { currentpoint } bd
/FLAT { flattenpath strokepath clip newpath } bd
/TGSM { tgiforigctm setmatrix } def
/TGRM { savematrix setmatrix } def

end

%%EndProlog
%%BeginSetup
%%PaperSize: a4
%%BeginPaperSize: a4
%%EndPaperSize
%%EndSetup
%%Page: 1 1

%%PageBoundingBox: 82 552 310 794
tgifdict begin
/tgifsavedpage save def

1 SM
1 W

0 SG

72 0 MU 72 11.602 MU TR
72 128 DI 100.000 MU 100 DI DU NE SC

GS

/tgiforigctm matrix currentmatrix def

% BOX
0 SG
GS
   10 SM
   GS
      NP 150 100 M 550 100 L 550 500 L 150 500 L CP
      S
   GR
GR

% POLY/OPEN-SPLINE
0 SG
GS
   [16 16] 0 SD
   NP
      150 300 M
      550 300 L
   TGSM
   1 W
   S
   [] 0 SD
GR

% POLY/OPEN-SPLINE
0 SG
GS
   [16 16] 0 SD
   NP
      350 100 M
      350 500 L
   TGSM
   1 W
   S
   [] 0 SD
GR

% BOX
0 SG
GS
   10 SM
   GS
      NP 200 150 M 300 150 L 300 250 L 200 250 L CP
      S
   GR
GR

% POLY/OPEN-SPLINE
0 SG
GS
   [16 16] 0 SD
   NP
      250 150 M
      250 250 L
   TGSM
   1 W
   S
   [] 0 SD
GR

% POLY/OPEN-SPLINE
0 SG
GS
   [16 16] 0 SD
   NP
      200 200 M
      300 200 L
   TGSM
   1 W
   S
   [] 0 SD
GR

% BOX
GS
   235 165 TR
   [0.707 0.707 -0.707 0.707 15 -35] CO
   235 NE 165 NE TR
0 SG
GS
   10 SM
   GS
      NP 235 165 M 335 165 L 335 265 L 235 265 L CP
      TGSM
      [16 16] 0 SD
      S
   GR
GR
GR

% ARC
0 SG
GS
   GS
      NP
         279 213 42 42 60 -8 TGAR
      S
   GR
GR
GS
   TGSM
   NP
      319 201 8.000 3.000 -25 -80 TGAT
   1 SG CP F
   0 SG
   NP
      319 201 8.000 3.000 -25 -80 TGAT
   CP F
GR

% TEXT
NP
0 SG
   GS
      1 W
      470 95 M
      GS
            0 SG
            /Helvetica FF [14 0 0 -14 0 0] MS
            (Input space) SH
      GR
   GR

% TEXT
NP
0 SG
   GS
      1 W
      160 90 M
      GS
            0 SG
            /Helvetica FF [14 0 0 -14 0 0] MS
            (Input image) SH
      GR
   GR

% POLY/OPEN-SPLINE
0 SG
GS
   NP
      195 90 M
      55 20 atan DU cos 8.000 MU 215 exch SU
      exch sin 8.000 MU 145 exch SU L
   TGSM
   1 W
   S
GR
GS
   TGSM
   NP
      215 145 8.000 3.000 20 55 TGAT
   1 SG CP F
   0 SG
   NP
      215 145 8.000 3.000 20 55 TGAT
   CP F
GR

% TEXT
NP
0 SG
   GS
      1 W
      400 390 M
      GS
            0 SG
            /Helvetica FF [14 0 0 -14 0 0] MS
            (Origin of input space) SH
      GR
   GR

% POLY/OPEN-SPLINE
0 SG
GS
   NP
      450 375 M
      -70 -95 atan DU cos 8.000 MU 355 exch SU
      exch sin 8.000 MU 305 exch SU L
   TGSM
   1 W
   S
GR
GS
   TGSM
   NP
      355 305 8.000 3.000 -95 -70 TGAT
   1 SG CP F
   0 SG
   NP
      355 305 8.000 3.000 -95 -70 TGAT
   CP F
GR

% TEXT
NP
0 SG
   GS
      1 W
      160 370 M
      GS
            0 SG
            /Helvetica FF [14 0 0 -14 0 0] MS
            (Origin of input image\(x_c,y_c\)) SH
      GR
   GR

% POLY/OPEN-SPLINE
0 SG
GS
   NP
      185 350 M
      -145 60 atan DU cos 8.000 MU 245 exch SU
      exch sin 8.000 MU 205 exch SU L
   TGSM
   1 W
   S
GR
GS
   TGSM
   NP
      245 205 8.000 3.000 60 -145 TGAT
   1 SG CP F
   0 SG
   NP
      245 205 8.000 3.000 60 -145 TGAT
   CP F
GR

% TEXT
NP
0 SG
   GS
      1 W
      395 260 M
      GS
            0 SG
            /Helvetica FF [14 0 0 -14 0 0] MS
            (angle) SH
      GR
   GR

% POLY/OPEN-SPLINE
0 SG
GS
   NP
      390 255 M
      -25 -60 atan DU cos 8.000 MU 330 exch SU
      exch sin 8.000 MU 230 exch SU L
   TGSM
   1 W
   S
GR
GS
   TGSM
   NP
      330 230 8.000 3.000 -60 -25 TGAT
   1 SG CP F
   0 SG
   NP
      330 230 8.000 3.000 -60 -25 TGAT
   CP F
GR

GR
tgifsavedpage restore
end
showpage

%%Trailer
%MatchingCreationDate: Fri Aug 26 11:23:14 2011
%%DocumentFonts: Helvetica
%%EOF
