%!PS-Adobe-3.0 EPSF-3.0
%%BoundingBox: 32 574 240 776
%%Title: input_single_weight
%%CreationDate: Sun Nov 14 15:38:03 2010
%%Creator: Tgif-4.2.2 written by William Chia-Wei Cheng (bill.cheng@acm.org)
%%ProducedBy: (unknown)
%%Pages: 1
%%DocumentFonts: (atend)
%%EndComments
%%BeginProlog

/tgifdict 89 dict def
tgifdict begin

/tgifellipsedict 6 dict def
tgifellipsedict /mtrx matrix put

/TGEL % tgifellipse
 { tgifellipsedict begin
      /yrad exch def
      /xrad exch def
      /y exch def
      /x exch def
      /savematrix mtrx currentmatrix def
      x y translate
      xrad yrad scale
      0 0 1 0 360 arc
      savematrix setmatrix
   end
 } def

/tgifarrowtipdict 8 dict def
tgifarrowtipdict /mtrx matrix put

/TGAT % tgifarrowtip
 { tgifarrowtipdict begin
      /dy exch def
      /dx exch def
      /h exch def
      /w exch def
      /y exch def
      /x exch def
      /savematrix mtrx currentmatrix def
      x y translate
      dy dx atan rotate
      0 0 moveto
      w neg h lineto
      w neg h neg lineto
      savematrix setmatrix
   end
 } def

/tgifpatdict 12 dict def

/tgifpatbyte
 { currentdict /retstr get exch
   bytesperrow mul
   pat i cellh mod bytesperrow mul bytesperrow getinterval putinterval
 } def

/tgifpatproc
 { 0 1 cells_wd 1 sub {tgifpatbyte} for retstr
   /i i 1 add def
 } def

/TGPF % tgifpatfill
 { tgifpatdict begin
      /h exch def
      /w exch def
      /lty exch def
      /ltx exch def
      /cellh exch def
      /cellw exch def
      /pat exch def

      /cells_wd w cellw div cvi def
      /bytesperrow cellw 8 div ceiling cvi def
      /retstr cells_wd bytesperrow mul string def
      /i 0 def

      tgiforigctm setmatrix
      ltx lty translate
      w h true [1 0 0 1 0 0] {tgifpatproc} imagemask
      ltx neg lty neg translate
   end
 } def

/pat3 <8000000008000000> def
/pat4 <8800000022000000> def
/pat5 <8800220088002200> def
/pat6 <8822882288228822> def
/pat7 <aa55aa55aa55aa55> def
/pat8 <77dd77dd77dd77dd> def
/pat9 <77ffddff77ffddff> def
/pat10 <77ffffffddffffff> def
/pat11 <7ffffffff7ffffff> def
/pat12 <8040200002040800> def
/pat13 <40a00000040a0000> def
/pat14 <ff888888ff888888> def
/pat15 <ff808080ff080808> def
/pat16 <f87422478f172271> def
/pat17 <038448300c020101> def
/pat18 <081c22c180010204> def
/pat19 <8080413e080814e3> def
/pat20 <8040201008040201> def
/pat21 <8844221188442211> def
/pat22 <77bbddee77bbddee> def
/pat23 <c1e070381c0e0783> def
/pat24 <7fbfdfeff7fbfdfe> def
/pat25 <3e1f8fc7e3f1f87c> def
/pat26 <0102040810204080> def
/pat27 <1122448811224488> def
/pat28 <eeddbb77eeddbb77> def
/pat29 <83070e1c3870e0c1> def
/pat30 <fefdfbf7efdfbf7f> def
/pat31 <7cf8f1e3c78f1f3e> def

/TGMAX
 { exch dup 3 1 roll exch dup 3 1 roll gt { pop } { exch pop } ifelse
 } def
/TGMIN
 { exch dup 3 1 roll exch dup 3 1 roll lt { pop } { exch pop } ifelse
 } def
/TGSW { stringwidth pop } def
/tgifstrw 0 def

/bd { bind def } bind def

/GS { gsave } bd
/GR { grestore } bd
/NP { newpath } bd
/CP { closepath } bd
/CHP { charpath } bd
/CT { curveto } bd
/L { lineto } bd
/RL { rlineto } bd
/M { moveto } bd
/RM { rmoveto } bd
/S { stroke } bd
/F { fill } bd
/TR { translate } bd
/RO { rotate } bd
/SC { scale } bd
/MU { mul } bd
/DI { div } bd
/DU { dup } bd
/NE { neg } bd
/AD { add } bd
/SU { sub } bd
/PO { pop } bd
/EX { exch } bd
/CO { concat } bd
/CL { clip } bd
/EC { eoclip } bd
/EF { eofill } bd
/IM { image } bd
/IMM { imagemask } bd
/ARY { array } bd
/SG { setgray } bd
/RG { setrgbcolor } bd
/SD { setdash } bd
/W { setlinewidth } bd
/SM { setmiterlimit } bd
/SLC { setlinecap } bd
/SLJ { setlinejoin } bd
/SH { show } bd
/FF { findfont } bd
/MS { makefont setfont } bd
/AR { arcto 4 {pop} repeat } bd
/CURP { currentpoint } bd
/FLAT { flattenpath strokepath clip newpath } bd
/TGSM { tgiforigctm setmatrix } def
/TGRM { savematrix setmatrix } def

end

%%EndProlog
%%Page: 1 1

%%PageBoundingBox: 32 574 240 776
tgifdict begin
/tgifsavedpage save def

1 SM
1 W

0 SG

72 0 MU 72 11 MU TR
72 128 DI 100.000 MU 100 DI DU NE SC

GS

/tgiforigctm matrix currentmatrix def

% BOX
0 SG
GS
   10 SM
   GS
      NP 64 64 M 424 64 L 424 384 L 64 384 L CP
      S
   GR
GR

% OVAL
0 SG
NP 128 128 4 4 TGEL F
GS
   GS
      NP 128 128 4 4 TGEL
      S
   GR
GR

% OVAL
0 SG
NP 64 64 4 4 TGEL F
GS
   GS
      NP 64 64 4 4 TGEL
      S
   GR
GR

% BOX
0 SG
GS
   10 SM
   GS
      NP 96 64 M 224 64 L 224 192 L 96 192 L CP
      1 SG S 0 SG
   GR
   0 SG
   GS
      NP 96 64 M 224 64 L 224 192 L 96 192 L CP
      FLAT
      pat31 8 8 88 56 144 144 TGPF
   GR
GR

% OVAL
0 SG
NP 160 128 4 4 TGEL F
GS
   GS
      NP 160 128 4 4 TGEL
      S
   GR
GR

% POLY/OPEN-SPLINE
0 SG
GS
   NP
      128 68 M
      52 0 atan DU cos 8.000 MU exch sin 8.000 MU RM
      52 0 atan DU cos 8.000 MU 128 exch SU
      exch sin 8.000 MU 120 exch SU L
   TGSM
   1 W
   S
GR
GS
   TGSM
   NP
      128 68 8.000 3.000 0 -52 TGAT
   1 SG CP F
   0 SG
   NP
      128 68 8.000 3.000 0 -52 TGAT
   CP F
GR
GS
   TGSM
   NP
      128 120 8.000 3.000 0 52 TGAT
   1 SG CP F
   0 SG
   NP
      128 120 8.000 3.000 0 52 TGAT
   CP F
GR

% POLY/OPEN-SPLINE
0 SG
GS
   NP
      68 128 M
      0 52 atan DU cos 8.000 MU exch sin 8.000 MU RM
      0 52 atan DU cos 8.000 MU 120 exch SU
      exch sin 8.000 MU 128 exch SU L
   TGSM
   1 W
   S
GR
GS
   TGSM
   NP
      68 128 8.000 3.000 -52 0 TGAT
   1 SG CP F
   0 SG
   NP
      68 128 8.000 3.000 -52 0 TGAT
   CP F
GR
GS
   TGSM
   NP
      120 128 8.000 3.000 52 0 TGAT
   1 SG CP F
   0 SG
   NP
      120 128 8.000 3.000 52 0 TGAT
   CP F
GR

% POLY/OPEN-SPLINE
0 SG
GS
   NP
      132 128 M
      0 24 atan DU cos 8.000 MU exch sin 8.000 MU RM
      0 24 atan DU cos 8.000 MU 156 exch SU
      exch sin 8.000 MU 128 exch SU L
   TGSM
   1 W
   S
GR
GS
   TGSM
   NP
      132 128 8.000 3.000 -24 0 TGAT
   1 SG CP F
   0 SG
   NP
      132 128 8.000 3.000 -24 0 TGAT
   CP F
GR
GS
   TGSM
   NP
      156 128 8.000 3.000 24 0 TGAT
   1 SG CP F
   0 SG
   NP
      156 128 8.000 3.000 24 0 TGAT
   CP F
GR

% BOX
0 SG
GS
   10 SM
   GS
      NP 64 96 M 192 96 L 192 224 L 64 224 L CP
      1 SG S 0 SG
   GR
   0 SG
   GS
      NP 64 96 M 192 96 L 192 224 L 64 224 L CP
      FLAT
      pat31 8 8 56 88 144 144 TGPF
   GR
GR

% BOX
0 SG
GS
   10 SM
   GS
      NP 64 64 M 192 64 L 192 192 L 64 192 L CP
      S
   GR
GR

% OVAL
0 SG
NP 128 160 4 4 TGEL F
GS
   GS
      NP 128 160 4 4 TGEL
      S
   GR
GR

% POLY/OPEN-SPLINE
0 SG
GS
   NP
      128 132 M
      24 0 atan DU cos 8.000 MU exch sin 8.000 MU RM
      24 0 atan DU cos 8.000 MU 128 exch SU
      exch sin 8.000 MU 156 exch SU L
   TGSM
   1 W
   S
GR
GS
   TGSM
   NP
      128 132 8.000 3.000 0 -24 TGAT
   1 SG CP F
   0 SG
   NP
      128 132 8.000 3.000 0 -24 TGAT
   CP F
GR
GS
   TGSM
   NP
      128 156 8.000 3.000 0 24 TGAT
   1 SG CP F
   0 SG
   NP
      128 156 8.000 3.000 0 24 TGAT
   CP F
GR

% TEXT
NP
0 SG
   GS
      1 W
      356 56 M
      GS
            0 SG
            /Courier FF [14 0 0 -14 0 0] MS
            (in) SH
      GR
   GR

% TEXT
NP
0 SG
   GS
      1 W
      100 44 M
      GS
            0 SG
            /Courier FF [14 0 0 -14 0 0] MS
            (origin of in) SH
      GR
   GR

% POLY/OPEN-SPLINE
0 SG
GS
   NP
      96 40 M
      16 -32 atan DU cos 8.000 MU 64 exch SU
      exch sin 8.000 MU 56 exch SU L
   TGSM
   1 W
   S
GR
GS
   TGSM
   NP
      64 56 8.000 3.000 -32 16 TGAT
   1 SG CP F
   0 SG
   NP
      64 56 8.000 3.000 -32 16 TGAT
   CP F
GR

% TEXT
NP
0 SG
   GS
      1 W
      244 92 M
      GS
            0 SG
            /Courier FF [14 0 0 -14 0 0] MS
            (start_x) SH
      GR
   GR

% POLY/OPEN-SPLINE
0 SG
GS
   NP
      240 88 M
      0 -104 atan DU cos 8.000 MU 136 exch SU
      exch sin 8.000 MU 88 exch SU L
   TGSM
   1 W
   S
GR
GS
   TGSM
   NP
      136 88 8.000 3.000 -104 0 TGAT
   1 SG CP F
   0 SG
   NP
      136 88 8.000 3.000 -104 0 TGAT
   CP F
GR

% POLY/OPEN-SPLINE
0 SG
GS
   NP
      88 236 M
      -104 0 atan DU cos 8.000 MU 88 exch SU
      exch sin 8.000 MU 132 exch SU L
   TGSM
   1 W
   S
GR
GS
   TGSM
   NP
      88 132 8.000 3.000 0 -104 TGAT
   1 SG CP F
   0 SG
   NP
      88 132 8.000 3.000 0 -104 TGAT
   CP F
GR

% TEXT
NP
0 SG
   GS
      1 W
      76 252 M
      GS
            0 SG
            /Courier FF [14 0 0 -14 0 0] MS
            (start_y) SH
      GR
   GR

% POLY/OPEN-SPLINE
0 SG
GS
   NP
      224 228 M
      -96 -80 atan DU cos 8.000 MU 144 exch SU
      exch sin 8.000 MU 132 exch SU L
   TGSM
   1 W
   S
GR
GS
   TGSM
   NP
      144 132 8.000 3.000 -80 -96 TGAT
   1 SG CP F
   0 SG
   NP
      144 132 8.000 3.000 -80 -96 TGAT
   CP F
GR

% POLY/OPEN-SPLINE
0 SG
GS
   NP
      224 228 M
      -84 -92 atan DU cos 8.000 MU 132 exch SU
      exch sin 8.000 MU 144 exch SU L
   TGSM
   1 W
   S
GR
GS
   TGSM
   NP
      132 144 8.000 3.000 -92 -84 TGAT
   1 SG CP F
   0 SG
   NP
      132 144 8.000 3.000 -92 -84 TGAT
   CP F
GR

% TEXT
NP
0 SG
   GS
      1 W
      220 244 M
      GS
            0 SG
            /Courier FF [14 0 0 -14 0 0] MS
            (step) SH
      GR
   GR

% TEXT
NP
0 SG
   GS
      1 W
      140 76 M
      GS
            0 SG
            /Courier FF [14 0 0 -14 0 0] MS
            (weight) SH
      GR
   GR

% POLY/OPEN-SPLINE
0 SG
GS
   NP
      276 160 M
      160 108 L
      12 -24 atan DU cos 8.000 MU 136 exch SU
      exch sin 8.000 MU 120 exch SU L
   TGSM
   1 W
   S
GR
GS
   TGSM
   NP
      136 120 8.000 3.000 -24 12 TGAT
   1 SG CP F
   0 SG
   NP
      136 120 8.000 3.000 -24 12 TGAT
   CP F
GR

% TEXT
NP
0 SG
   GS
      1 W
      244 180 M
      GS
            0 SG
            /Courier FF [14 0 0 -14 0 0] MS
            (center of weight) SH
      GR
      0 16 RM
      GS
            0 SG
            /Courier FF [14 0 0 -14 0 0] MS
            (or calculation point) SH
      GR
   GR

GR
tgifsavedpage restore
end
showpage

%%Trailer
%MatchingCreationDate: Sun Nov 14 15:38:03 2010
%%DocumentFonts: Courier
%%EOF
